module gitlab.eclipse.org/eclipse/xfsc/tsa/cache

go 1.21

require (
	github.com/cloudevents/sdk-go/protocol/nats/v2 v2.14.0
	github.com/cloudevents/sdk-go/v2 v2.14.0
	github.com/google/uuid v1.3.0
	github.com/kelseyhightower/envconfig v1.4.0
	github.com/prometheus/client_golang v1.16.0
	github.com/redis/go-redis/v9 v9.0.5
	github.com/stretchr/testify v1.8.4
	gitlab.eclipse.org/eclipse/xfsc/tsa/golib v1.3.2-0.20230810143053-d53786b08923
	go.uber.org/zap v1.25.0
	goa.design/goa/v3 v3.12.1
	golang.org/x/sync v0.3.0
)

require (
	github.com/beorn7/perks v1.0.1 // indirect
	github.com/cespare/xxhash/v2 v2.2.0 // indirect
	github.com/davecgh/go-spew v1.1.1 // indirect
	github.com/decred/dcrd/dcrec/secp256k1/v4 v4.2.0 // indirect
	github.com/dgryski/go-rendezvous v0.0.0-20200823014737-9f7001d12a5f // indirect
	github.com/dimfeld/httppath v0.0.0-20170720192232-ee938bf73598 // indirect
	github.com/dimfeld/httptreemux/v5 v5.5.0 // indirect
	github.com/goccy/go-json v0.10.2 // indirect
	github.com/golang/protobuf v1.5.3 // indirect
	github.com/gopherjs/gopherjs v1.17.2 // indirect
	github.com/gorilla/websocket v1.5.0 // indirect
	github.com/json-iterator/go v1.1.12 // indirect
	github.com/jtolds/gls v4.20.0+incompatible // indirect
	github.com/klauspost/compress v1.16.7 // indirect
	github.com/lestrrat-go/blackmagic v1.0.1 // indirect
	github.com/lestrrat-go/httpcc v1.0.1 // indirect
	github.com/lestrrat-go/httprc v1.0.4 // indirect
	github.com/lestrrat-go/iter v1.0.2 // indirect
	github.com/lestrrat-go/jwx/v2 v2.0.11 // indirect
	github.com/lestrrat-go/option v1.0.1 // indirect
	github.com/manveru/faker v0.0.0-20171103152722-9fbc68a78c4d // indirect
	github.com/matttproud/golang_protobuf_extensions v1.0.4 // indirect
	github.com/minio/highwayhash v1.0.2 // indirect
	github.com/modern-go/concurrent v0.0.0-20180306012644-bacd9c7ef1dd // indirect
	github.com/modern-go/reflect2 v1.0.2 // indirect
	github.com/nats-io/jwt/v2 v2.4.1 // indirect
	github.com/nats-io/nats.go v1.13.1-0.20220308171302-2f2f6968e98d // indirect
	github.com/nats-io/nkeys v0.4.4 // indirect
	github.com/nats-io/nuid v1.0.1 // indirect
	github.com/pmezard/go-difflib v1.0.0 // indirect
	github.com/prometheus/client_model v0.3.0 // indirect
	github.com/prometheus/common v0.42.0 // indirect
	github.com/prometheus/procfs v0.10.1 // indirect
	github.com/rogpeppe/go-internal v1.11.0 // indirect
	github.com/segmentio/asm v1.2.0 // indirect
	github.com/sergi/go-diff v1.3.1 // indirect
	github.com/smartystreets/assertions v1.13.0 // indirect
	github.com/zach-klippenstein/goregen v0.0.0-20160303162051-795b5e3961ea // indirect
	go.uber.org/multierr v1.10.0 // indirect
	golang.org/x/crypto v0.9.0 // indirect
	golang.org/x/mod v0.12.0 // indirect
	golang.org/x/sys v0.10.0 // indirect
	golang.org/x/text v0.11.0 // indirect
	golang.org/x/tools v0.10.0 // indirect
	google.golang.org/protobuf v1.31.0 // indirect
	gopkg.in/yaml.v3 v3.0.1 // indirect
)
